{
  "$schema": "https://raw.githubusercontent.com/InfinniPlatform/InfinniUI-schema/master/View/View.json",
  "Name": "ListView",
  "Text": "Мои предприятия",
  "DataSources": [
    {
      "DocumentDataSource": {
        "Name": "MainDataSource",
        "ConfigId": "OrganizationsDirectory",
        "DocumentId": "Organizations"
      }
    },
    {
      "ObjectDataSource": {
        "Name": "FilterDataSource",
        "Items": [
          {
            "Property": "regex(Title, '^{0}', IgnoreCase)"
          },
          {
            "Property": "regex(full_address.city1_formal_name.FORMALNAME, '^{0}', IgnoreCase)"
          },
          {
            "Property": "regex(Phone, '^{0}', IgnoreCase)"
          }
        ]
      }
    }
  ],
  "Items": [
    {
      "GridPanel": {
        "Items": [
          {
            "Cell": {
              "ColumnSpan": 12,
              "Items": [
                {
                  "Label": {
                    "Text": "Мои предприятия",
                    "HorizontalAligment": "Left",
                    "TextHorizontalAligment": "Left",
                    "TextStyle": "Title"
                  }
                }
              ]
            }
          },
          {
            "Cell": {
              "ColumnSpan": 12,
              "Items": [
                {
                  "Label": {
                    "Text": " . ",
                    "Foreground": "White"
                  }
                }
              ]
            }
          },
          {
            "Cell": {
              "ColumnSpan": 12,
              "Items": [
                {
                  "Label": {
                    "Text": " . ",
                    "Foreground": "White"
                  }
                }
              ]
            }
          },
          {
            "Cell": {
              "ColumnSpan": 12,
              "Items": [
                {
                  "Label": {
                    "Text": " . ",
                    "Foreground": "White"
                  }
                }
              ]
            }
          },
          {
            "Cell": {
              "ColumnSpan": 3,
              "Items": [
                {
                  "TextBox": {
                    "Name": "NameFilter",
                    "LabelText": "Название",
                    "Value": {
                      "Source": "FilterDataSource",
                      "Property": "0.Value"
                    }
                  }
                }
              ]
            }
          },
          {
            "Cell": {
              "ColumnSpan": 3,
              "Items": [
                {
                  "TextBox": {
                    "Name": "CityFilter",
                    "LabelText": "Город",
                    "Value": {
                      "Source": "FilterDataSource",
                      "Property": "1.Value"
                    }
                  }
                }
              ]
            }
          },
          {
            "Cell": {
              "ColumnSpan": 3,
              "Items": [
                {
                  "TextBox": {
                    "Name": "PhoneFilter",
                    "LabelText": "Телефон",
                    "Value": {
                      "Source": "FilterDataSource",
                      "Property": "2.Value"
                    }
                  }
                }
              ]
            }
          },
          {
            "Cell": {
              "ColumnSpan": 3,
              "Items": [
                {
                  "Button": {
                    "Text": "Найти",
                    "Name": "FindButton",
                    "OnClick": "{ gkhSetFilter(context, 'FilterDataSource', 'MainDataSource'); }",
                    "HorizontalAlignment": "Right",
                    "Style": "findButton"
                  }
                }
              ]
            }
          },
          {
            "Cell": {
              "ColumnSpan": 12,
              "Items": [
                {
                  "Label": {
                    "Text": " . ",
                    "Foreground": "White"
                  }
                }
              ]
            }
          },
          {
            "Cell": {
              "ColumnSpan": 12,
              "Items": [
                {
                  "StackPanel": {
                    "Orientation": "Horizontal",
                    "HorizontalAlignment": "Right",
                    "ViewMode": "FormGroup",
                    "Items": [
                      {
                        "Button": {
                          "Text": "Добавить предприятие",
                          "Name": "AddOrganizationButton",
                          "Action": {
                            "AddAction": {
                              "DestinationValue": {
                                "Source": "MainDataSource"
                              },
                              "SourceValue": {
                                "Source": "MainDataSource"
                              },
                              "LinkView": {
                                "AutoView": {
                                  "Path": "Organizations/EditView",
                                  "OpenMode": "Dialog",
                                  "DialogWidth": "Large"
                                }
                              }
                            }
                          }
                        }
                      }
                    ]
                  }
                }
              ]
            }
          },
          {
            "Cell": {
              "ColumnSpan": 12,
              "Items": [
                {
                  "ScrollPanel": {
                    "Items": [
                      {
                        "DataGrid": {
                          "Name": "OrganizationsDataGrid",
                          "VerticalAlignment": "Stretch",
                          "ShowSelectors": false,
                          "Columns": [
                            {
                              "Header": "Название",
                              "CellProperty": "Title"
                            },
                            {
                              "Header": "Сайт",
                              "CellProperty": "Site"
                            },
                            {
                              "Header": "Телефон",
                              "CellProperty": "Phone"
                            },
                            {
                              "Header": "Город",
                              "CellProperty": "full_address.city1_formal_name.FORMALNAME"
                            },
                            {
                              "HeaderTemplate": {
                                "Label": {
                                  "Text": "Действия",
                                  "TextHorizontalAlignment": "Center"
                                }
                              },
                              "CellTemplate": {
                                "StackPanel": {
                                  "Orientation": "Horizontal",
                                  "HorizontalAlignment": "Center",
                                  "ViewMode": "FormGroup",
                                  "Items": [
                                    {
                                      "Button": {
                                        "ViewMode": "link",
                                        "Name": "EditButton",
                                        "ContentTemplate": {
                                          "Icon": {
                                            "Value": "pencil",
                                            "ToolTip": "Редактировать"
                                          }
                                        },
                                        "OnClick": "{ }",
                                        "Action": {
                                          "EditAction": {
                                            "DestinationValue": {
                                              "Source": "MainDataSource",
                                              "Property": "#"
                                            },
                                            "SourceValue": {
                                              "Source": "MainDataSource"
                                            },
                                            "LinkView": {
                                              "AutoView": {
                                                "Path": "Organizations/EditView",
                                                "OpenMode": "Dialog",
                                                "DialogWidth": "Large"
                                              }
                                            }
                                          }
                                        }
                                      }
                                    },
                                    {
                                      "Button": {
                                        "ViewMode": "link",
                                        "Name": "RemoveButton",
                                        "ContentTemplate": {
                                          "Icon": {
                                            "Value": "trash",
                                            "ToolTip": "Удалить"
                                          }
                                        },
                                        "Action": {
                                          "DeleteAction": {
                                            "DestinationValue": {
                                              "Source": "MainDataSource",
                                              "Property": "#"
                                            }
                                          }
                                        }
                                      }
                                    }
                                  ]
                                }
                              }
                            }
                          ],
                          "Items": {
                            "Source": "MainDataSource",
                            "Property": ""
                          }
                        }
                      }
                    ]
                  }
                }
              ]
            }
          }
        ]
      }
    }
  ]
}